%YAML 1.1
%TAG !u! tag:unity3d.com,2011:
--- !u!74 &7400000
AnimationClip:
  m_ObjectHideFlags: 0
  m_PrefabParentObject: {fileID: 0}
  m_PrefabInternal: {fileID: 0}
  m_Name: Jump
  serializedVersion: 6
  m_Legacy: 0
  m_Compressed: 0
  m_UseHighQualityCurve: 1
  m_RotationCurves: []
  m_CompressedRotationCurves: []
  m_EulerCurves: []
  m_PositionCurves: []
  m_ScaleCurves: []
  m_FloatCurves: []
  m_PPtrCurves:
  - curve:
    - time: 0
      value: {fileID: 21300000, guid: cbe69aa37c376704195b78c732da57ce, type: 3}
    - time: 0.083333336
      value: {fileID: 21300000, guid: b2f4d871745bc894686c5c5262caa03f, type: 3}
    - time: 0.16666667
      value: {fileID: 21300000, guid: b9854d5415927fb4f875733382be55e0, type: 3}
    - time: 0.25
      value: {fileID: 21300000, guid: 718a6dd1835ccb345adf4f9493a2bfcd, type: 3}
    - time: 0.33333334
      value: {fileID: 21300000, guid: 6ea16e63444d92f4bb9512a953c65a4f, type: 3}
    - time: 0.41666666
      value: {fileID: 21300000, guid: 852b085f936f51e4ba874107947df222, type: 3}
    - time: 0.5
      value: {fileID: 21300000, guid: 4e1e80b0fd099974c8a38387627925e1, type: 3}
    - time: 0.5833333
      value: {fileID: 21300000, guid: e18f2c0f8e0cbe24d813b2ac978b7d82, type: 3}
    attribute: m_Sprite
    path: 
    classID: 212
    script: {fileID: 0}
  m_SampleRate: 12
  m_WrapMode: 0
  m_Bounds:
    m_Center: {x: 0, y: 0, z: 0}
    m_Extent: {x: 0, y: 0, z: 0}
  m_ClipBindingConstant:
    genericBindings:
    - serializedVersion: 2
      path: 0
      attribute: 0
      script: {fileID: 0}
      typeID: 212
      customType: 23
      isPPtrCurve: 1
    pptrCurveMapping:
    - {fileID: 21300000, guid: cbe69aa37c376704195b78c732da57ce, type: 3}
    - {fileID: 21300000, guid: b2f4d871745bc894686c5c5262caa03f, type: 3}
    - {fileID: 21300000, guid: b9854d5415927fb4f875733382be55e0, type: 3}
    - {fileID: 21300000, guid: 718a6dd1835ccb345adf4f9493a2bfcd, type: 3}
    - {fileID: 21300000, guid: 6ea16e63444d92f4bb9512a953c65a4f, type: 3}
    - {fileID: 21300000, guid: 852b085f936f51e4ba874107947df222, type: 3}
    - {fileID: 21300000, guid: 4e1e80b0fd099974c8a38387627925e1, type: 3}
    - {fileID: 21300000, guid: e18f2c0f8e0cbe24d813b2ac978b7d82, type: 3}
  m_AnimationClipSettings:
    serializedVersion: 2
    m_AdditiveReferencePoseClip: {fileID: 0}
    m_AdditiveReferencePoseTime: 0
    m_StartTime: 0
    m_StopTime: 0.6666666
    m_OrientationOffsetY: 0
    m_Level: 0
    m_CycleOffset: 0
    m_HasAdditiveReferencePose: 0
    m_LoopTime: 0
    m_LoopBlend: 0
    m_LoopBlendOrientation: 0
    m_LoopBlendPositionY: 0
    m_LoopBlendPositionXZ: 0
    m_KeepOriginalOrientation: 0
    m_KeepOriginalPositionY: 1
    m_KeepOriginalPositionXZ: 0
    m_HeightFromFeet: 0
    m_Mirror: 0
  m_EditorCurves: []
  m_EulerEditorCurves: []
  m_HasGenericRootTransform: 0
  m_HasMotionFloatCurves: 0
  m_GenerateMotionCurves: 0
  m_Events: []
